[
  { "id": "1668001282721", "name": "Riu", "email": "riu@gmail.com", "password": "$2b$10$A8A.7nQjPY/yUI4bMJH3Xew4xQ4ni.2cq9uX0ZeKN1P4.xCKI.JGe" },
  { "id": "1668004565727", "name": "Tia", "email": "tia@gmail.com", "password": "$2b$10$u56j7QJMd7Juo8ny1cYdlO0xyMpg0JIVoc86Ljo7JRNtSzJbX8m0O" },
  { "id": "1668004733060", "name": "siska", "email": "siska@gmail.com", "password": "$2b$10$.f/k2/40KNwidwePddBJ.OTYKUYRQlD4PI8lc1eyfk3FI5DAJJSja" }
]
